{
  "twrp_url": "https://gitlab.com/OrangeFox/Manifest.git ",
  "twrp_branch": "fox_9.0",
  "git_username": "503369121",
  "git_email": "503369121+503369121@qq.com",
  "use_own_dt": true,
  "dt_url": "https://github.com/MiCode/Xiaomi_Kernel_OpenSource/tree/cannon-q-oss",
  "dt_remote": "github",
  "dt_path": "device/xiaomi/RedmiNote9",
  "device_code": "cannon",
  "fix_product": true,
  "fix_misscom": true,
  "fix_busybox": false,
  "fix_branch": "Android-9.0"
}
